{
  "label": "People",
  "position": 3,
  "link": {
    "type": "generated-index",
    "title": "People",
    "description": "LINCS is made possible thanks to our funding and infrastructure partners, and the participation of a strong, diverse team of project leads, staff, research collaborators, technical collaborators, students, board members, and committee members. Individuals and organizations interested in the project are welcome to become involved. We are always happy to see the LINCS network grow!",
    "slug": "about-lincs/people"
  }
}