{
  "label": "Linked Open Data Basics",
  "position": 1,
  "link": {
    "type": "generated-index",
    "title": "Linked Open Data Basics",
    "description": "The pages below explain important Linked Data (LD) concepts.",
    "slug": "/get-started/linked-open-data-basics"
  }
}