{
  "label": "Get Involved",
  "position": 4,
  "link": {
    "type": "generated-index",
    "title": "Get Involved",
    "description": "There are many  ways you can get involved with LINCS. We are happy to see the LINCS network grow!",
    "slug": "about-lincs/get-involved"
  }
}
